Visual Diagnostics for Statistical Modeling
…
Let's predict happiness based on factors in the UN Quality of Life dataset

```r
library(tidyverse)
# csv url: https://raw.githubusercontent.com/srvanderplas/
#          miscTeaching/master/ds303_2019/2017_Human_Dev_Index.csv

hdi_2017 <- read_csv("https://bit.ly/2mbYdfX")

hdi_2017
```

```
## # A tibble: 154 x 74
##    Country Happiness_Rank Happiness_Index  year Coef_Human_Ineq…
##    <chr>            <dbl>           <dbl> <dbl>            <dbl>
##  1 United…             19            6.89  2017            13.1 
##  2 United…             15            7.05  2017             9.09
##  3 Germany             17            6.98  2017             7.79
##  4 France              24            6.59  2017            10.1 
##  5 Japan               58            5.89  2017             3.59
##  6 Spain               30            6.35  2017            14.9 
##  7 Italy               36            6.22  2017            11.9 
##  8 Portug…             66            5.69  2017            13.2 
##  9 Greece              82            5.29  2017            13.1 
## 10 Ireland             16            7.02  2017             8.60
## # … with 144 more rows, and 69 more variables:
## #   Elderly_Dependency_Pct <dbl>, Empl_Agriculture <dbl>,
## #   Empl_Nonagriculture_Pct_Female <dbl>, Empl_Pop_Ratio <dbl>,
## #   Empl_Services <dbl>, Empl_Vulnerable_Pct <dbl>,
## #   Expected_years_of_schooling <dbl>, Exports_Imports_PctGDP <dbl>,
## #   Female_Bank_Acct_Pct <dbl>,
## #   Finance_Sector_Domestic_Credit_PctGDP <dbl>,
## #   Foreign_Direct_Investment_PctGDP <dbl>, GDP <dbl>, GDP_pc <dbl>,
## #   GNIpc_female <dbl>, GNIpc_male <dbl>, Gross_Capital_PctGDP <dbl>,
…
```
## <2547/92/2639>
```

---
## Cross-Validation

```r
analysis(ames_cv$splits[[1]])
```

```
## # A tibble: 2,547 x 2
##    Sale_Price Gr_Liv_Area
##         <int>       <int>
##  1     215000        1656
##  2     172000        1329
##  3     244000        2110
##  4     189900        1629
##  5     195500        1604
##  6     213500        1338
##  7     191500        1280
##  8     236500        1616
##  9     189000        1804
## 10     175900        1655
## # … with 2,537 more rows
```

```r
assessment(ames_cv$splits[[1]])
```

```
## # A tibble: 92 x 2
##    Sale_Price Gr_Liv_Area
##         <int>       <int>
##  1     149900        1078
##  2     230000        1492
##  3     172500        1556
##  4     242000        2978
##  5     236000        1949
##  6     318000        1978
##  7      90000         960
##  8      55993        1044
##  9     246000        1646
## 10     128000        1180
## # … with 82 more rows
```
…
